test_run_dir/chiselVerifyTest1_should_pass/simpleModule.vcd
$date
2022-05-25T07:38+0000
$end
$version
0.2
$end
$comment

$end
$timescale 1ns  $end
$scope module simpleModule $end
 $var wire 8 ! const_1 $end
 $var wire 8 ' const_3 $end
 $var wire 10 * io_in_a $end
 $var wire 8 + const_0 $end
 $var wire 10 / io_in_c $end
 $var wire 1 0 clock $end
 $var wire 1 2 fir_1 $end
 $var wire 8 4 const_2 $end
 $var wire 1 5 mac_1 $end
 $var wire 10 7 io_out_a $end
 $var wire 1 9 reset $end
 $var wire 10 < io_in_b $end
  $scope module mac_1 $end
   $var wire 8 $ io_in_a $end
   $var wire 8 - io_in_c $end
   $var wire 8 1 io_out_a $end
   $var wire 8 : io_in_b $end
  $upscope $end
  $scope module fir_1 $end
   $var wire 1 " io_valid $end
   $var wire 8 # taps_3 $end
   $var wire 8 % io_consts_0 $end
   $var wire 8 & io_consts_3 $end
   $var wire 8 ( taps_2 $end
   $var wire 8 ) io_in $end
   $var wire 1 , reset $end
   $var wire 8 . io_consts_2 $end
   $var wire 8 3 taps_1 $end
   $var wire 8 6 io_consts_1 $end
   $var wire 8 8 io_out $end
   $var wire 1 ; clock $end
  $upscope $end
$upscope $end
$enddefinitions $end
$dumpvars
0;
b00000000 1
b0000000000 /
b00000000 +
0"
b00000000 -
09
b0000000000 *
b00000000 %
02
b00000000 &
b00000000 '
b00000000 (
05
b00000000 )
b00000000 !
b0000000000 <
b00000000 8
b00000000 #
00
b00000000 $
b00000000 :
b0000000000 7
b00000000 3
b00000000 4
0,
b00000000 6
b00000000 .
$end
#0
b00000001 !
b00000001 %
b00000001 4
1"
b00000001 .
b00000001 &
19
b00000001 '
b00000001 6
b00000001 +
1,
#1
10
1;
#6
00
b00000001 -
b00000001 1
b00000001 8
09
b0000000001 7
b0000000001 /
0,
0;
b00000001 )
#11
b00000001 3
10
b00000010 8
b0000000010 7
1;
#16
00
0;
#21
10
b00000011 8
b00000001 (
b0000000011 7
1;
#26
00
b0000000001 <
b00000001 :
0;
#31
10
b00000100 8
b00000001 #
b0000000100 7
1;
#36
00
0;
#41
10
1;
#46
00
b0000000010 <
b00000010 :
0;
#51
10
1;
#56
00
0;
#61
10
1;
#66
00
b0000000011 <
b00000011 :
0;
#71
10
1;
#76
00
0;
#81
10
1;
#86
00
b0000000100 <
b00000100 :
0;
#91
10
1;
#96
00
0;
#101
10
1;
#106
00
b0000000101 <
b00000101 :
0;
#111
10
1;
#116
00
0;
#121
10
1;
#126
00
b0000000110 <
b00000110 :
0;
#131
10
1;
#136
00
0;
#141
10
1;
#146
00
b0000000111 <
b00000111 :
0;
#151
10
1;
#156
00
0;
#161
10
1;
#166
00
b0000001000 <
b00001000 :
0;
#171
10
1;
#176
00
0;
#181
10
1;
#186
00
b0000001001 <
b00001001 :
0;
#191
10
1;
#196
00
0;
#201
10
1;
#206
00
b0000001010 <
b00001010 :
0;
#211
10
1;
#216
00
0;
#221
10
1;
#226
00
b0000001011 <
b00001011 :
0;
#231
10
1;
#236
00
0;
#241
10
1;
#246
00
b0000001100 <
b00001100 :
0;
#251
10
1;
#256
00
0;
#261
10
1;
#266
00
b0000001101 <
b00001101 :
0;
#271
10
1;
#276
00
0;
#281
10
1;
#286
00
b0000001110 <
b00001110 :
0;
#291
10
1;
#296
00
0;
#301
10
1;
#306
00
b0000001111 <
b00001111 :
0;
#311
10
1;
#316
00
0;
#321
10
1;
#326
00
b0000010000 <
b00010000 :
0;
#331
10
1;
#336
00
0;
#341
10
1;
#346
00
b0000010001 <
b00010001 :
0;
#351
10
1;
#356
00
0;
#361
10
1;
#366
00
b0000010010 <
b00010010 :
0;
#371
10
1;
#376
00
0;
#381
10
1;
#386
00
b0000010011 <
b00010011 :
0;
#391
10
1;
#396
00
0;
#401
10
1;
#406
00
b0000010100 <
b00010100 :
0;
#411
10
1;
#416
00
0;
#421
10
1;
#426
00
b0000010101 <
b00010101 :
0;
#431
10
1;
#436
00
0;
#441
10
1;
#446
00
b0000010110 <
b00010110 :
0;
#451
10
1;
#456
00
0;
#461
10
1;
#466
00
b0000010111 <
b00010111 :
0;
#471
10
1;
#476
00
0;
#481
10
1;
#486
00
b0000011000 <
b00011000 :
0;
#491
10
1;
#496
00
0;
#501
10
1;
#506
00
b0000011001 <
b00011001 :
0;
#511
10
1;
#516
00
0;
#521
10
1;
#526
00
b0000011010 <
b00011010 :
0;
#531
10
1;
#536
00
0;
#541
10
1;
#546
00
b0000011011 <
b00011011 :
0;
#551
10
1;
#556
00
0;
#561
10
1;
#566
00
b0000011100 <
b00011100 :
0;
#571
10
1;
#576
00
0;
#581
10
1;
#586
00
b0000011101 <
b00011101 :
0;
#591
10
1;
#596
00
0;
#601
10
1;
#606
00
b0000011110 <
b00011110 :
0;
#611
10
1;
#616
00
0;
#621
10
1;
#626
00
b0000011111 <
b00011111 :
0;
#631
10
1;
#636
00
0;
#641
10
1;
#646
00
b0000100000 <
b00100000 :
0;
#651
10
1;
#656
00
0;
#661
10
1;
#666
00
b0000100001 <
b00100001 :
0;
#671
10
1;
#676
00
0;
#681
10
1;
#686
00
b0000100010 <
b00100010 :
0;
#691
10
1;
#696
00
0;
#701
10
1;
#706
00
b0000100011 <
b00100011 :
0;
#711
10
1;
#716
00
0;
#721
10
1;
#726
00
b0000100100 <
b00100100 :
0;
#731
10
1;
#736
00
0;
#741
10
1;
#746
00
b0000100101 <
b00100101 :
0;
#751
10
1;
#756
00
0;
#761
10
1;
#766
00
b0000100110 <
b00100110 :
0;
#771
10
1;
#776
00
0;
#781
10
1;
#786
00
b0000100111 <
b00100111 :
0;
#791
10
1;
#796
00
0;
#801
10
1;
#806
00
b0000101000 <
b00101000 :
0;
#811
10
1;
#816
00
0;
#821
10
1;
#826
00
b0000101001 <
b00101001 :
0;
#831
10
1;
#836
00
0;
#841
10
1;
#846
00
b0000101010 <
b00101010 :
0;
#851
10
1;
#856
00
0;
#861
10
1;
#866
00
b0000101011 <
b00101011 :
0;
#871
10
1;
#876
00
0;
#881
10
1;
#886
00
b0000101100 <
b00101100 :
0;
#891
10
1;
#896
00
0;
#901
10
1;
#906
00
b0000101101 <
b00101101 :
0;
#911
10
1;
#916
00
0;
#921
10
1;
#926
00
b0000101110 <
b00101110 :
0;
#931
10
1;
#936
00
0;
#941
10
1;
#946
00
b0000101111 <
b00101111 :
0;
#951
10
1;
#956
00
0;
#961
10
1;
#966
00
b0000110000 <
b00110000 :
0;
#971
10
1;
#976
00
0;
#981
10
1;
#986
00
b0000110001 <
b00110001 :
0;
#991
10
1;
#996
00
0;
#1001
10
1;
#1006
00
b0000110010 <
b00110010 :
0;
#1011
10
1;
#1016
00
0;
#1021
10
1;
#1026
00
b0000110011 <
b00110011 :
0;
#1031
10
1;
#1036
00
0;
#1041
10
1;
#1046
00
b0000110100 <
b00110100 :
0;
#1051
10
1;
#1056
00
0;
#1061
10
1;
#1066
00
b0000110101 <
b00110101 :
0;
#1071
10
1;
#1076
00
0;
#1081
10
1;
#1086
00
b0000110110 <
b00110110 :
0;
#1091
10
1;
#1096
00
0;
#1101
10
1;
#1106
00
b0000110111 <
b00110111 :
0;
#1111
10
1;
#1116
00
0;
#1121
10
1;
#1126
00
b0000111000 <
b00111000 :
0;
#1131
10
1;
#1136
00
0;
#1141
10
1;
#1146
00
b0000111001 <
b00111001 :
0;
#1151
10
1;
#1156
00
0;
#1161
10
1;
#1166
00
b0000111010 <
b00111010 :
0;
#1171
10
1;
#1176
00
0;
#1181
10
1;
#1186
00
b0000111011 <
b00111011 :
0;
#1191
10
1;
#1196
00
0;
#1201
10
1;
#1206
00
b0000111100 <
b00111100 :
0;
#1211
10
1;
#1216
00
0;
#1221
10
1;
#1226
00
b0000111101 <
b00111101 :
0;
#1231
10
1;
#1236
00
0;
#1241
10
1;
#1246
00
b0000111110 <
b00111110 :
0;
#1251
10
1;
#1256
00
0;
#1261
10
1;
#1266
00
b0000111111 <
b00111111 :
0;
#1271
10
1;
#1276
00
0;
#1281
10
1;
#1286
00
b0001000000 <
b01000000 :
0;
#1291
10
1;
#1296
00
0;
#1301
10
1;
#1306
00
b0001000001 <
b01000001 :
0;
#1311
10
1;
#1316
00
0;
#1321
10
1;
#1326
00
b0001000010 <
b01000010 :
0;
#1331
10
1;
#1336
00
0;
#1341
10
1;
#1346
00
b0001000011 <
b01000011 :
0;
#1351
10
1;
#1356
00
0;
#1361
10
1;
#1366
00
b0001000100 <
b01000100 :
0;
#1371
10
1;
#1376
00
0;
#1381
10
1;
#1386
00
b0001000101 <
b01000101 :
0;
#1391
10
1;
#1396
00
0;
#1401
10
1;
#1406
00
b0001000110 <
b01000110 :
0;
#1411
10
1;
#1416
00
0;
#1421
10
1;
#1426
00
b0001000111 <
b01000111 :
0;
#1431
10
1;
#1436
00
0;
#1441
10
1;
#1446
00
b0001001000 <
b01001000 :
0;
#1451
10
1;
#1456
00
0;
#1461
10
1;
#1466
00
b0001001001 <
b01001001 :
0;
#1471
10
1;
#1476
00
0;
#1481
10
1;
#1486
00
b0001001010 <
b01001010 :
0;
#1491
10
1;
#1496
00
0;
#1501
10
1;
#1506
00
b0001001011 <
b01001011 :
0;
#1511
10
1;
#1516
00
0;
#1521
10
1;
#1526
00
b0001001100 <
b01001100 :
0;
#1531
10
1;
#1536
00
0;
#1541
10
1;
#1546
00
b0001001101 <
b01001101 :
0;
#1551
10
1;
#1556
00
0;
#1561
10
1;
#1566
00
b0001001110 <
b01001110 :
0;
#1571
10
1;
#1576
00
0;
#1581
10
1;
#1586
00
b0001001111 <
b01001111 :
0;
#1591
10
1;
#1596
00
0;
#1601
10
1;
#1606
00
b0001010000 <
b01010000 :
0;
#1611
10
1;
#1616
00
0;
#1621
10
1;
#1626
00
b0001010001 <
b01010001 :
0;
#1631
10
1;
#1636
00
0;
#1641
10
1;
#1646
00
b0001010010 <
b01010010 :
0;
#1651
10
1;
#1656
00
0;
#1661
10
1;
#1666
00
b0001010011 <
b01010011 :
0;
#1671
10
1;
#1676
00
0;
#1681
10
1;
#1686
00
b0001010100 <
b01010100 :
0;
#1691
10
1;
#1696
00
0;
#1701
10
1;
#1706
00
b0001010101 <
b01010101 :
0;
#1711
10
1;
#1716
00
0;
#1721
10
1;
#1726
00
b0001010110 <
b01010110 :
0;
#1731
10
1;
#1736
00
0;
#1741
10
1;
#1746
00
b0001010111 <
b01010111 :
0;
#1751
10
1;
#1756
00
0;
#1761
10
1;
#1766
00
b0001011000 <
b01011000 :
0;
#1771
10
1;
#1776
00
0;
#1781
10
1;
#1786
00
b0001011001 <
b01011001 :
0;
#1791
10
1;
#1796
00
0;
#1801
10
1;
#1806
00
b0001011010 <
b01011010 :
0;
#1811
10
1;
#1816
00
0;
#1821
10
1;
#1826
00
b0001011011 <
b01011011 :
0;
#1831
10
1;
#1836
00
0;
#1841
10
1;
#1846
00
b0001011100 <
b01011100 :
0;
#1851
10
1;
#1856
00
0;
#1861
10
1;
#1866
00
b0001011101 <
b01011101 :
0;
#1871
10
1;
#1876
00
0;
#1881
10
1;
#1886
00
b0001011110 <
b01011110 :
0;
#1891
10
1;
#1896
00
0;
#1901
10
1;
#1906
00
b0001011111 <
b01011111 :
0;
#1911
10
1;
#1916
00
0;
#1921
10
1;
#1926
00
b0001100000 <
b01100000 :
0;
#1931
10
1;
#1936
00
0;
#1941
10
1;
#1946
00
b0001100001 <
b01100001 :
0;
#1951
10
1;
#1956
00
0;
#1961
10
1;
#1966
00
b0001100010 <
b01100010 :
0;
#1971
10
1;
#1976
00
0;
#1981
10
1;
#1986
00
b0001100011 <
b01100011 :
0;
#1991
10
1;
#1996
00
0;
#2001
10
1;
#2006
00
b0001100100 <
b01100100 :
0;
#2011
10
1;
#2016
00
0;
#2021
10
1;
#2026
00
b0001100101 <
b01100101 :
0;
#2031
10
1;
#2036
00
0;
#2041
10
1;
#2046
00
b0001100110 <
b01100110 :
0;
#2051
10
1;
#2056
00
0;
#2061
10
1;
#2066
00
b0001100111 <
b01100111 :
0;
#2071
10
1;
#2076
00
0;
#2081
10
1;
#2086
00
b0001101000 <
b01101000 :
0;
#2091
10
1;
#2096
00
0;
#2101
10
1;
#2106
00
b0001101001 <
b01101001 :
0;
#2111
10
1;
#2116
00
0;
#2121
10
1;
#2126
00
b0001101010 <
b01101010 :
0;
#2131
10
1;
#2136
00
0;
#2141
10
1;
#2146
00
b0001101011 <
b01101011 :
0;
#2151
10
1;
#2156
00
0;
#2161
10
1;
#2166
00
b0001101100 <
b01101100 :
0;
#2171
10
1;
#2176
00
0;
#2181
10
1;
#2186
00
b0001101101 <
b01101101 :
0;
#2191
10
1;
#2196
00
0;
#2201
10
1;
#2206
00
b0001101110 <
b01101110 :
0;
#2211
10
1;
#2216
00
0;
#2221
10
1;
#2226
00
b0001101111 <
b01101111 :
0;
#2231
10
1;
#2236
00
0;
#2241
10
1;
#2246
00
b0001110000 <
b01110000 :
0;
#2251
10
1;
#2256
00
0;
#2261
10
1;
#2266
00
b0001110001 <
b01110001 :
0;
#2271
10
1;
#2276
00
0;
#2281
10
1;
#2286
00
b0001110010 <
b01110010 :
0;
#2291
10
1;
#2296
00
0;
#2301
10
1;
#2306
00
b0001110011 <
b01110011 :
0;
#2311
10
1;
#2316
00
0;
#2321
10
1;
#2326
00
b0001110100 <
b01110100 :
0;
#2331
10
1;
#2336
00
0;
#2341
10
1;
#2346
00
b0001110101 <
b01110101 :
0;
#2351
10
1;
#2356
00
0;
#2361
10
1;
#2366
00
b0001110110 <
b01110110 :
0;
#2371
10
1;
#2376
00
0;
#2381
10
1;
#2386
00
b0001110111 <
b01110111 :
0;
#2391
10
1;
#2396
00
0;
#2401
10
1;
#2406
00
b0001111000 <
b01111000 :
0;
#2411
10
1;
#2416
00
0;
#2421
10
1;
#2426
00
b0001111001 <
b01111001 :
0;
#2431
10
1;
#2436
00
0;
#2441
10
1;
#2446
00
b0001111010 <
b01111010 :
0;
#2451
10
1;
#2456
00
0;
#2461
10
1;
#2466
00
b0001111011 <
b01111011 :
0;
#2471
10
1;
#2476
00
0;
#2481
10
1;
#2486
00
b0001111100 <
b01111100 :
0;
#2491
10
1;
#2496
00
0;
#2501
10
1;
#2506
00
b0001111101 <
b01111101 :
0;
#2511
10
1;
#2516
00
0;
#2521
10
1;
#2526
00
b0001111110 <
b01111110 :
0;
#2531
10
1;
#2536
00
0;
#2541
10
1;
#2546
00
b0001111111 <
b01111111 :
0;
#2551
10
1;
#2556
00
0;
#2561
10
1;
#2566
00
b0010000000 <
b10000000 :
0;
#2571
10
1;
#2576
00
0;
#2581
10
1;
#2586
00
b0010000001 <
b10000001 :
0;
#2591
10
1;
#2596
00
0;
#2601
10
1;
#2606
00
b0010000010 <
b10000010 :
0;
#2611
10
1;
#2616
00
0;
#2621
10
1;
#2626
00
b0010000011 <
b10000011 :
0;
#2631
10
1;
#2636
00
0;
#2641
10
1;
#2646
00
b0010000100 <
b10000100 :
0;
#2651
10
1;
#2656
00
0;
#2661
10
1;
#2666
00
b0010000101 <
b10000101 :
0;
#2671
10
1;
#2676
00
0;
#2681
10
1;
#2686
00
b0010000110 <
b10000110 :
0;
#2691
10
1;
#2696
00
0;
#2701
10
1;
#2706
00
b0010000111 <
b10000111 :
0;
#2711
10
1;
#2716
00
0;
#2721
10
1;
#2726
00
b0010001000 <
b10001000 :
0;
#2731
10
1;
#2736
00
0;
#2741
10
1;
#2746
00
b0010001001 <
b10001001 :
0;
#2751
10
1;
#2756
00
0;
#2761
10
1;
#2766
00
b0010001010 <
b10001010 :
0;
#2771
10
1;
#2776
00
0;
#2781
10
1;
#2786
00
b0010001011 <
b10001011 :
0;
#2791
10
1;
#2796
00
0;
#2801
10
1;
#2806
00
b0010001100 <
b10001100 :
0;
#2811
10
1;
#2816
00
0;
#2821
10
1;
#2826
00
b0010001101 <
b10001101 :
0;
#2831
10
1;
#2836
00
0;
#2841
10
1;
#2846
00
b0010001110 <
b10001110 :
0;
#2851
10
1;
#2856
00
0;
#2861
10
1;
#2866
00
b0010001111 <
b10001111 :
0;
#2871
10
1;
#2876
00
0;
#2881
10
1;
#2886
00
b0010010000 <
b10010000 :
0;
#2891
10
1;
#2896
00
0;
#2901
10
1;
#2906
00
b0010010001 <
b10010001 :
0;
#2911
10
1;
#2916
00
0;
#2921
10
1;
#2926
00
b0010010010 <
b10010010 :
0;
#2931
10
1;
#2936
00
0;
#2941
10
1;
#2946
00
b0010010011 <
b10010011 :
0;
#2951
10
1;
#2956
00
0;
#2961
10
1;
#2966
00
b0010010100 <
b10010100 :
0;
#2971
10
1;
#2976
00
0;
#2981
10
1;
#2986
00
b0010010101 <
b10010101 :
0;
#2991
10
1;
#2996
00
0;
#3001
10
1;
#3006
00
b0010010110 <
b10010110 :
0;
#3011
10
1;
#3016
00
0;
#3021
10
1;
#3026
00
b0010010111 <
b10010111 :
0;
#3031
10
1;
#3036
00
0;
#3041
10
1;
#3046
00
b0010011000 <
b10011000 :
0;
#3051
10
1;
#3056
00
0;
#3061
10
1;
#3066
00
b0010011001 <
b10011001 :
0;
#3071
10
1;
#3076
00
0;
#3081
10
1;
#3086
00
b0010011010 <
b10011010 :
0;
#3091
10
1;
#3096
00
0;
#3101
10
1;
#3106
00
b0010011011 <
b10011011 :
0;
#3111
10
1;
#3116
00
0;
#3121
10
1;
#3126
00
b0010011100 <
b10011100 :
0;
#3131
10
1;
#3136
00
0;
#3141
10
1;
#3146
00
b0010011101 <
b10011101 :
0;
#3151
10
1;
#3156
00
0;
#3161
10
1;
#3166
00
b0010011110 <
b10011110 :
0;
#3171
10
1;
#3176
00
0;
#3181
10
1;
#3186
00
b0010011111 <
b10011111 :
0;
#3191
10
1;
#3196
00
0;
#3201
10
1;
#3206
00
b0010100000 <
b10100000 :
0;
#3211
10
1;
#3216
00
0;
#3221
10
1;
#3226
00
b0010100001 <
b10100001 :
0;
#3231
10
1;
#3236
00
0;
#3241
10
1;
#3246
00
b0010100010 <
b10100010 :
0;
#3251
10
1;
#3256
00
0;
#3261
10
1;
#3266
00
b0010100011 <
b10100011 :
0;
#3271
10
1;
#3276
00
0;
#3281
10
1;
#3286
00
b0010100100 <
b10100100 :
0;
#3291
10
1;
#3296
00
0;
#3301
10
1;
#3306
00
b0010100101 <
b10100101 :
0;
#3311
10
1;
#3316
00
0;
#3321
10
1;
#3326
00
b0010100110 <
b10100110 :
0;
#3331
10
1;
#3336
00
0;
#3341
10
1;
#3346
00
b0010100111 <
b10100111 :
0;
#3351
10
1;
#3356
00
0;
#3361
10
1;
#3366
00
b0010101000 <
b10101000 :
0;
#3371
10
1;
#3376
00
0;
#3381
10
1;
#3386
00
b0010101001 <
b10101001 :
0;
#3391
10
1;
#3396
00
0;
#3401
10
1;
#3406
00
b0010101010 <
b10101010 :
0;
#3411
10
1;
#3416
00
0;
#3421
10
1;
#3426
00
b0010101011 <
b10101011 :
0;
#3431
10
1;
#3436
00
0;
#3441
10
1;
#3446
00
b0010101100 <
b10101100 :
0;
#3451
10
1;
#3456
00
0;
#3461
10
1;
#3466
00
b0010101101 <
b10101101 :
0;
#3471
10
1;
#3476
00
0;
#3481
10
1;
#3486
00
b0010101110 <
b10101110 :
0;
#3491
10
1;
#3496
00
0;
#3501
10
1;
#3506
00
b0010101111 <
b10101111 :
0;
#3511
10
1;
#3516
00
0;
#3521
10
1;
#3526
00
b0010110000 <
b10110000 :
0;
#3531
10
1;
#3536
00
0;
#3541
10
1;
#3546
00
b0010110001 <
b10110001 :
0;
#3551
10
1;
#3556
00
0;
#3561
10
1;
#3566
00
b0010110010 <
b10110010 :
0;
#3571
10
1;
#3576
00
0;
#3581
10
1;
#3586
00
b0010110011 <
b10110011 :
0;
#3591
10
1;
#3596
00
0;
#3601
10
1;
#3606
00
b0010110100 <
b10110100 :
0;
#3611
10
1;
#3616
00
0;
#3621
10
1;
#3626
00
b0010110101 <
b10110101 :
0;
#3631
10
1;
#3636
00
0;
#3641
10
1;
#3646
00
b0010110110 <
b10110110 :
0;
#3651
10
1;
#3656
00
0;
#3661
10
1;
#3666
00
b0010110111 <
b10110111 :
0;
#3671
10
1;
#3676
00
0;
#3681
10
1;
#3686
00
b0010111000 <
b10111000 :
0;
#3691
10
1;
#3696
00
0;
#3701
10
1;
#3706
00
b0010111001 <
b10111001 :
0;
#3711
10
1;
#3716
00
0;
#3721
10
1;
#3726
00
b0010111010 <
b10111010 :
0;
#3731
10
1;
#3736
00
0;
#3741
10
1;
#3746
00
b0010111011 <
b10111011 :
0;
#3751
10
1;
#3756
00
0;
#3761
10
1;
#3766
00
b0010111100 <
b10111100 :
0;
#3771
10
1;
#3776
00
0;
#3781
10
1;
#3786
00
b0010111101 <
b10111101 :
0;
#3791
10
1;
#3796
00
0;
#3801
10
1;
#3806
00
b0010111110 <
b10111110 :
0;
#3811
10
1;
#3816
00
0;
#3821
10
1;
#3826
00
b0010111111 <
b10111111 :
0;
#3831
10
1;
#3836
00
0;
#3841
10
1;
#3846
00
b0011000000 <
b11000000 :
0;
#3851
10
1;
#3856
00
0;
#3861
10
1;
#3866
00
b0011000001 <
b11000001 :
0;
#3871
10
1;
#3876
00
0;
#3881
10
1;
#3886
00
b0011000010 <
b11000010 :
0;
#3891
10
1;
#3896
00
0;
#3901
10
1;
#3906
00
b0011000011 <
b11000011 :
0;
#3911
10
1;
#3916
00
0;
#3921
10
1;
#3926
00
b0011000100 <
b11000100 :
0;
#3931
10
1;
#3936
00
0;
#3941
10
1;
#3946
00
b0011000101 <
b11000101 :
0;
#3951
10
1;
#3956
00
0;
#3961
10
1;
#3966
00
b0011000110 <
b11000110 :
0;
#3971
10
1;
#3976
00
0;
#3981
10
1;
#3986
00
b0011000111 <
b11000111 :
0;
#3991
10
1;
#3996
00
0;
#4001
10
1;
#4006
00
b0011001000 <
b11001000 :
0;
#4011
10
1;
#4016
00
0;
#4021
10
1;
#4026
00
b0011001001 <
b11001001 :
0;
#4031
10
1;
#4036
00
0;
#4041
10
1;
#4046
00
b0011001010 <
b11001010 :
0;
#4051
10
1;
#4056
00
0;
#4061
10
1;
#4066
00
b0011001011 <
b11001011 :
0;
#4071
10
1;
#4076
00
0;
#4081
10
1;
#4086
00
b0011001100 <
b11001100 :
0;
#4091
10
1;
#4096
00
0;
#4101
10
1;
#4106
00
b0011001101 <
b11001101 :
0;
#4111
10
1;
#4116
00
0;
#4121
10
1;
#4126
00
b0011001110 <
b11001110 :
0;
#4131
10
1;
#4136
00
0;
#4141
10
1;
#4146
00
b0011001111 <
b11001111 :
0;
#4151
10
1;
#4156
00
0;
#4161
10
1;
#4166
00
b0011010000 <
b11010000 :
0;
#4171
10
1;
#4176
00
0;
#4181
10
1;
#4186
00
b0011010001 <
b11010001 :
0;
#4191
10
1;
#4196
00
0;
#4201
10
1;
#4206
00
b0011010010 <
b11010010 :
0;
#4211
10
1;
#4216
00
0;
#4221
10
1;
#4226
00
b0011010011 <
b11010011 :
0;
#4231
10
1;
#4236
00
0;
#4241
10
1;
#4246
00
b0011010100 <
b11010100 :
0;
#4251
10
1;
#4256
00
0;
#4261
10
1;
#4266
00
b0011010101 <
b11010101 :
0;
#4271
10
1;
#4276
00
0;
#4281
10
1;
#4286
00
b0011010110 <
b11010110 :
0;
#4291
10
1;
#4296
00
0;
#4301
10
1;
#4306
00
b0011010111 <
b11010111 :
0;
#4311
10
1;
#4316
00
0;
#4321
10
1;
#4326
00
b0011011000 <
b11011000 :
0;
#4331
10
1;
#4336
00
0;
#4341
10
1;
#4346
00
b0011011001 <
b11011001 :
0;
#4351
10
1;
#4356
00
0;
#4361
10
1;
#4366
00
b0011011010 <
b11011010 :
0;
#4371
10
1;
#4376
00
0;
#4381
10
1;
#4386
00
b0011011011 <
b11011011 :
0;
#4391
10
1;
#4396
00
0;
#4401
10
1;
#4406
00
b0011011100 <
b11011100 :
0;
#4411
10
1;
#4416
00
0;
#4421
10
1;
#4426
00
b0011011101 <
b11011101 :
0;
#4431
10
1;
#4436
00
0;
#4441
10
1;
#4446
00
b0011011110 <
b11011110 :
0;
#4451
10
1;
#4456
00
0;
#4461
10
1;
#4466
00
b0011011111 <
b11011111 :
0;
#4471
10
1;
#4476
00
0;
#4481
10
1;
#4486
00
b0011100000 <
b11100000 :
0;
#4491
10
1;
#4496
00
0;
#4501
10
1;
#4506
00
b0011100001 <
b11100001 :
0;
#4511
10
1;
#4516
00
0;
#4521
10
1;
#4526
00
b0011100010 <
b11100010 :
0;
#4531
10
1;
#4536
00
0;
#4541
10
1;
#4546
00
b0011100011 <
b11100011 :
0;
#4551
10
1;
#4556
00
0;
#4561
10
1;
#4566
00
b0011100100 <
b11100100 :
0;
#4571
10
1;
#4576
00
0;
#4581
10
1;
#4586
00
b0011100101 <
b11100101 :
0;
#4591
10
1;
#4596
00
0;
#4601
10
1;
#4606
00
b0011100110 <
b11100110 :
0;
#4611
10
1;
#4616
00
0;
#4621
10
1;
#4626
00
b0011100111 <
b11100111 :
0;
#4631
10
1;
#4636
00
0;
#4641
10
1;
#4646
00
b0011101000 <
b11101000 :
0;
#4651
10
1;
#4656
00
0;
#4661
10
1;
#4666
00
b0011101001 <
b11101001 :
0;
#4671
10
1;
#4676
00
0;
#4681
10
1;
#4686
00
b0011101010 <
b11101010 :
0;
#4691
10
1;
#4696
00
0;
#4701
10
1;
#4706
00
b0011101011 <
b11101011 :
0;
#4711
10
1;
#4716
00
0;
#4721
10
1;
#4726
00
b0011101100 <
b11101100 :
0;
#4731
10
1;
#4736
00
0;
#4741
10
1;
#4746
00
b0011101101 <
b11101101 :
0;
#4751
10
1;
#4756
00
0;
#4761
10
1;
#4766
00
b0011101110 <
b11101110 :
0;
#4771
10
1;
#4776
00
0;
#4781
10
1;
#4786
00
b0011101111 <
b11101111 :
0;
#4791
10
1;
#4796
00
0;
#4801
10
1;
#4806
00
b0011110000 <
b11110000 :
0;
#4811
10
1;
#4816
00
0;
#4821
10
1;
#4826
00
b0011110001 <
b11110001 :
0;
#4831
10
1;
#4836
00
0;
#4841
10
1;
#4846
00
b0011110010 <
b11110010 :
0;
#4851
10
1;
#4856
00
0;
#4861
10
1;
#4866
00
b0011110011 <
b11110011 :
0;
#4871
10
1;
#4876
00
0;
#4881
10
1;
#4886
00
b0011110100 <
b11110100 :
0;
#4891
10
1;
#4896
00
0;
#4901
10
1;
#4906
00
b0011110101 <
b11110101 :
0;
#4911
10
1;
#4916
00
0;
#4921
10
1;
#4926
00
b0011110110 <
b11110110 :
0;
#4931
10
1;
#4936
00
0;
#4941
10
1;
#4946
00
b0011110111 <
b11110111 :
0;
#4951
10
1;
#4956
00
0;
#4961
10
1;
#4966
00
b0011111000 <
b11111000 :
0;
#4971
10
1;
#4976
00
0;
#4981
10
1;
#4986
00
b0011111001 <
b11111001 :
0;
#4991
10
1;
#4996
00
0;
#5001
10
1;
#5006
00
b0011111010 <
b11111010 :
0;
#5011
10
1;
#5016
00
0;
#5021
10
1;
#5026
00
b0011111011 <
b11111011 :
0;
#5031
10
1;
#5036
00
0;
#5041
10
1;
#5046
00
b0011111100 <
b11111100 :
0;
#5051
10
1;
#5056
00
0;
#5061
10
1;
#5066
00
b0011111101 <
b11111101 :
0;
#5071
10
1;
#5076
00
0;
#5081
10
1;
#5086
00
b0011111110 <
b11111110 :
0;
#5091
10
1;
#5096
00
0;
#5101
10
1;
#5106
00
b0011111111 <
b11111111 :
0;
#5111
10
1;
#5116
00
0;
#5121
10
1;
#5126
00
b0100000000 <
b00000000 :
0;
#5131
10
1;
#5136
00
0;
#5141
10
1;
#5146
00
b0100000001 <
b00000001 :
0;
#5151
10
1;
#5156
00
0;
#5161
10
1;
#5166
00
b0100000010 <
b00000010 :
0;
#5171
10
1;
#5176
00
0;
#5181
10
1;
#5186
00
b0100000011 <
b00000011 :
0;
#5191
10
1;
#5196
00
0;
#5201
10
1;
#5206
00
b0100000100 <
b00000100 :
0;
#5211
10
1;
#5216
00
0;
#5221
10
1;
#5226
00
b0100000101 <
b00000101 :
0;
#5231
10
1;
#5236
00
0;
#5241
10
1;
#5246
00
b0100000110 <
b00000110 :
0;
#5251
10
1;
#5256
00
0;
#5261
10
1;
#5266
00
b0100000111 <
b00000111 :
0;
#5271
10
1;
#5276
00
0;
#5281
10
1;
#5286
00
b0100001000 <
b00001000 :
0;
#5291
10
1;
#5296
00
0;
#5301
10
1;
#5306
00
b0100001001 <
b00001001 :
0;
#5311
10
1;
#5316
00
0;
#5321
10
1;
#5326
00
b0100001010 <
b00001010 :
0;
#5331
10
1;
#5336
00
0;
#5341
10
1;
#5346
00
b0100001011 <
b00001011 :
0;
#5351
10
1;
#5356
00
0;
#5361
10
1;
#5366
00
b0100001100 <
b00001100 :
0;
#5371
10
1;
#5376
00
0;
#5381
10
1;
#5386
00
b0100001101 <
b00001101 :
0;
#5391
10
1;
#5396
00
0;
#5401
10
1;
#5406
00
b0100001110 <
b00001110 :
0;
#5411
10
1;
#5416
00
0;
#5421
10
1;
#5426
00
b0100001111 <
b00001111 :
0;
#5431
10
1;
#5436
00
0;
#5441
10
1;
#5446
00
b0100010000 <
b00010000 :
0;
#5451
10
1;
#5456
00
0;
#5461
10
1;
#5466
00
b0100010001 <
b00010001 :
0;
#5471
10
1;
#5476
00
0;
#5481
10
1;
#5486
00
b0100010010 <
b00010010 :
0;
#5491
10
1;
#5496
00
0;
#5501
10
1;
#5506
00
b0100010011 <
b00010011 :
0;
#5511
10
1;
#5516
00
0;
#5521
10
1;
#5526
00
b0100010100 <
b00010100 :
0;
#5531
10
1;
#5536
00
0;
#5541
10
1;
#5546
00
b0100010101 <
b00010101 :
0;
#5551
10
1;
#5556
00
0;
#5561
10
1;
#5566
00
b0100010110 <
b00010110 :
0;
#5571
10
1;
